        -:    0:Source:Game.h
        -:    0:Graph:Game.gcno
        -:    0:Data:Game.gcda
        -:    0:Runs:1
        -:    0:Programs:1
        -:    1:#ifndef __GAME_H_
        -:    2:#define __GAME_H_
        -:    3:
        -:    4:#include "Player.h"
        -:    5:#include "Creature.h"
        -:    6:
        -:    7:#include <iostream>
        -:    8:#include <iomanip>
        -:    9:#include <vector>
        -:   10:#include <string>
        -:   11://istream& cin
        -:   12:using namespace std;
        -:   13:
        -:   14:///Base class that all scenes in the game will inherit from.
    #####:   15:class Game
    $$$$$:   15-block  0
    $$$$$:   15-block  1
        -:   16:{
        -:   17:  public:
        -:   18:   ///Pointer to the player of the game.
        -:   19:   Player *user;
        -:   20:
        -:   21:   ///A vector that contains the options that the user may choose from.
        -:   22:   vector<string> options;
        -:   23:
        -:   24:   ///Default constructor, accepts no arguments.
        -:   25:   Game();
        -:   26:
        -:   27:   ///Calls the playScene() function to progress throught the game.
        -:   28:   void playGame();
        -:   29:
        -:   30:   ///Sequentially progresses through each scene in the game. 
        -:   31:   void playScene(int sceneNumber=1);
        -:   32:
        -:   33:   ///Collects input from the user to move the game forward.
        -:   34:   string getUserChoice();
        -:   35:
        -:   36:    ///Takes the word and finds a suitable "alternate" word for streamlining (ex: use/throw/eat/attack : Will all be 'use')
        -:   37:   string generalizedWord(string);
        -:   38:
        -:   39:   ///Is called when the player dies. Takes a scene number and a reaseon as argument to let the player know why.
        -:   40:   void gameOver(int sceneNumber, string reason="because of an unknown reason."); //Died on scene sceneNumber because reason
        -:   41:
        -:   42:   ///Checks whether the game is over. Accepts no parameters.
        -:   43:   void isOver();
        -:   44:
        -:   45:   ///Fighting NPCs return 0 for user death, return 1 if user won.
        -:   46:   bool battle(Creature *enemy);
        -:   47:
        -:   48:};
        -:   49:
        -:   50:#endif
